<?xml version="1.0" encoding="UTF-8" standalone="no"?>
<svg
   xmlns:dc="http://purl.org/dc/elements/1.1/"
   xmlns:cc="http://creativecommons.org/ns#"
   xmlns:rdf="http://www.w3.org/1999/02/22-rdf-syntax-ns#"
   xmlns:svg="http://www.w3.org/2000/svg"
   xmlns="http://www.w3.org/2000/svg"
   xmlns:sodipodi="http://sodipodi.sourceforge.net/DTD/sodipodi-0.dtd"
   xmlns:inkscape="http://www.inkscape.org/namespaces/inkscape"
   sodipodi:docname="office2.svg"
   inkscape:version="1.0 (4035a4fb49, 2020-05-01)"
   id="svg1847"
   version="1.1"
   viewBox="0 0 1719.7916 978.95839"
   height="3700"
   width="6500">
  <defs
     id="defs1841" />
  <sodipodi:namedview
     inkscape:window-maximized="1"
     inkscape:window-y="-8"
     inkscape:window-x="-8"
     inkscape:window-height="705"
     inkscape:window-width="1366"
     units="px"
     showgrid="false"
     inkscape:document-rotation="0"
     inkscape:current-layer="layer1"
     inkscape:document-units="mm"
     inkscape:cy="1850"
     inkscape:cx="3250"
     inkscape:zoom="0.11648649"
     inkscape:pageshadow="2"
     inkscape:pageopacity="0.0"
     borderopacity="1.0"
     bordercolor="#666666"
     pagecolor="#ffffff"
     id="base"
     inkscape:object-nodes="true"
     inkscape:snap-others="true"
     inkscape:snap-nodes="true"
     inkscape:snap-intersection-paths="true"
     inkscape:object-paths="true"
     inkscape:snap-smooth-nodes="true"
     inkscape:snap-center="true" />
  <metadata
     id="metadata1844">
    <rdf:RDF>
      <cc:Work
         rdf:about="">
        <dc:format>image/svg+xml</dc:format>
        <dc:type
           rdf:resource="http://purl.org/dc/dcmitype/StillImage" />
        <dc:title></dc:title>
        <cc:license
           rdf:resource="http://creativecommons.org/licenses/by/4.0/" />
      </cc:Work>
      <cc:License
         rdf:about="http://creativecommons.org/licenses/by/4.0/">
        <cc:permits
           rdf:resource="http://creativecommons.org/ns#Reproduction" />
        <cc:permits
           rdf:resource="http://creativecommons.org/ns#Distribution" />
        <cc:requires
           rdf:resource="http://creativecommons.org/ns#Notice" />
        <cc:requires
           rdf:resource="http://creativecommons.org/ns#Attribution" />
        <cc:permits
           rdf:resource="http://creativecommons.org/ns#DerivativeWorks" />
      </cc:License>
    </rdf:RDF>
  </metadata>
  <g
     id="layer1"
     inkscape:groupmode="layer"
     inkscape:label="Layer 1">
    <rect
       style="fill:#afc6e9;stroke-width:4.68928;stroke-linecap:round;stroke-linejoin:round"
       id="rect847"
       width="1719.7916"
       height="978.95831"
       x="1.0503754e-05"
       y="3.6853347e-08" />
    <path
       d="M 0,0 V 740.85002 H 1719.7917 V 0 Z"
       style="fill:#d7e3f4;fill-opacity:1;stroke-width:4.56207;stroke-linecap:round;stroke-linejoin:round"
       id="rect894" />
    <path
       d="m 0,703.45602 v 40 h 1719.7914 v -40 z"
       style="fill:#3771c8;fill-opacity:0.58;stroke-width:4.56295;stroke-linecap:round;stroke-linejoin:round"
       id="rect904" />
    <g
       transform="matrix(1,0,0,1.1113028,0,-61.824529)"
       id="g1132">
      <rect
         y="115.40993"
         x="287.297"
         height="440.05264"
         width="1119.7216"
         id="rect1063"
         style="fill:#e0e9f7;fill-opacity:1;stroke:none;stroke-width:15.875;stroke-linecap:round;stroke-linejoin:round;stroke-miterlimit:4;stroke-dasharray:none;stroke-opacity:1" />
      <path
         id="path1056"
         d="m 284.32858,206.2645 h 49.62347 v 127.68755 h 39.28848 v -41.744 h 68.75481 v 95.76565 h 61.38826 v -61.38826 h 73.6659 v 71.21038 h 31.92187 v -132.5986 h 105.5878 v 83.488 h 31.92187 v -83.488 h 58.93271 v 120.32096 h 39.28848 v -54.02167 h 39.28848 v 49.11061 h 36.83294 v -51.56613 h 44.19954 V 429.7177 h 67.83791 v -157.1539 0 h 50.0275 v 98.22119 h 34.3774 V 179.25367 h 44.1996 V 314.3078 h 76.1214 V 117.35256 h 76.1214 v 216.59949 h 93.4189 V 555.46257 H 287.29699 Z"
         style="fill:#afc6e9;fill-opacity:1;stroke:none;stroke-width:0.264583px;stroke-linecap:butt;stroke-linejoin:miter;stroke-opacity:1" />
      <path
         transform="scale(0.26458333)"
         d="m 2687.9277,436.19531 -1602.08,367.0625 V 1241.873 L 4602.3066,436.19531 Z"
         style="opacity:0.345161;fill:#ffffff;fill-opacity:1;stroke:none;stroke-width:49.3848;stroke-linecap:round;stroke-linejoin:round;stroke-miterlimit:4;stroke-dasharray:none;stroke-opacity:1"
         id="rect1073" />
      <path
         transform="scale(0.26458333)"
         d="M 5317.8652,500.11914 1085.8477,1469.7422 v 438.6152 L 5317.8652,938.73438 Z"
         style="opacity:0.345161;fill:#ffffff;fill-opacity:1;stroke:none;stroke-width:49.3848;stroke-linecap:round;stroke-linejoin:round;stroke-miterlimit:4;stroke-dasharray:none;stroke-opacity:1"
         id="rect1075" />
      <path
         transform="scale(0.26458333)"
         d="m 5317.8652,1063.8965 -4232.0175,969.625 v 65.8652 h 504.8808 l 3727.1367,-853.9472 z"
         style="opacity:0.345161;fill:#ffffff;fill-opacity:1;stroke:none;stroke-width:31.7717;stroke-linecap:round;stroke-linejoin:round;stroke-miterlimit:4;stroke-dasharray:none;stroke-opacity:1"
         id="rect1077" />
      <path
         transform="scale(0.26458333)"
         d="m 5317.8652,1400.1191 -3052.0214,699.2676 h 1914.375 l 1137.6464,-260.6543 z"
         style="opacity:0.345161;fill:#ffffff;fill-opacity:1;stroke:none;stroke-width:49.3848;stroke-linecap:round;stroke-linejoin:round;stroke-miterlimit:4;stroke-dasharray:none;stroke-opacity:1"
         id="rect1079" />
      <rect
         y="117.35255"
         x="284.32855"
         height="438.11002"
         width="374.26624"
         id="rect1048"
         style="fill:none;stroke:#3771c8;stroke-width:15.875;stroke-linecap:round;stroke-linejoin:round;stroke-miterlimit:4;stroke-dasharray:none;stroke-opacity:1" />
      <rect
         style="fill:none;stroke:#3771c8;stroke-width:15.875;stroke-linecap:round;stroke-linejoin:round;stroke-miterlimit:4;stroke-dasharray:none;stroke-opacity:1"
         id="rect1052"
         width="374.26624"
         height="438.11002"
         x="658.59485"
         y="117.35255" />
      <rect
         y="117.35255"
         x="1032.8611"
         height="438.11002"
         width="374.26624"
         id="rect1054"
         style="fill:none;stroke:#3771c8;stroke-width:15.875;stroke-linecap:round;stroke-linejoin:round;stroke-miterlimit:4;stroke-dasharray:none;stroke-opacity:1" />
    </g>
    <path
       style="opacity:0.467742;fill:#999999;stroke:none;stroke-width:0.188033px;stroke-linecap:butt;stroke-linejoin:miter;stroke-opacity:1;"
       d="M 250.84715,364.41023 31.224778,405.38065 30.921648,364.19302 Z"
       id="path1211" />
    <path
       id="rect1545"
       style="opacity:0.468;fill:#999999;fill-opacity:1;stroke:none;stroke-width:20;stroke-linecap:round;stroke-linejoin:round;stroke-miterlimit:4;stroke-dasharray:none;stroke-opacity:1;paint-order:fill markers stroke"
       d="M 2081.4941 3258.625 C 2027.9293 3258.625 1984.8066 3314.1506 1984.8066 3383.123 C 1984.8066 3452.0955 2027.9293 3507.623 2081.4941 3507.623 L 3208.8691 3507.623 A 687.45067 113.67294 0 0 0 3876.5488 3594.2305 A 687.45067 113.67294 0 0 0 4544.2285 3507.623 L 5742.1719 3507.623 C 5795.7365 3507.623 5838.8594 3452.0955 5838.8594 3383.123 C 5838.8594 3314.1506 5795.7365 3258.625 5742.1719 3258.625 L 2081.4941 3258.625 z "
       transform="scale(0.26458333)" />
    <ellipse
       ry="20.829231"
       rx="138.0901"
       cy="796.90607"
       cx="207.52086"
       id="path917"
       style="opacity:0.468;fill:#999999;fill-opacity:1;stroke-width:6.61458;stroke-linecap:round;stroke-linejoin:round" />
    <rect
       style="opacity:1;fill:#916f6f;fill-opacity:1;stroke:none;stroke-width:16.2198;stroke-linecap:round;stroke-linejoin:round;stroke-miterlimit:4;stroke-dasharray:none;stroke-opacity:0.580392"
       id="rect1228"
       width="140.15768"
       height="176.97913"
       x="140.15768"
       y="620.98529"
       ry="13.081384" />
    <g
       id="g1384"
       transform="translate(-4.2333335,0.52916663)">
      <path
         id="path1291"
         d="m 211.97329,644.26525 c 0,0 -20.02898,-75.19744 16.69081,-131.05837 36.71976,-55.86095 46.73426,-70.90045 46.73426,-70.90045 0,0 21.69803,107.4249 -63.42507,201.95882 z"
         style="fill:#00d400;stroke:none;stroke-width:0.300186px;stroke-linecap:butt;stroke-linejoin:miter;stroke-opacity:1" />
      <path
         sodipodi:nodetypes="cscc"
         inkscape:transform-center-y="1.669081"
         inkscape:transform-center-x="5.0072431"
         style="fill:#00d400;stroke:none;stroke-width:0.300186px;stroke-linecap:butt;stroke-linejoin:miter;stroke-opacity:1"
         d="m 210.83617,653.9066 c 0,0 24.44292,-51.683 59.64534,-108.56798 24.69444,-39.90472 86.46412,-57.59366 86.46412,-57.59366 -62.09425,59.67382 -23.2205,106.0188 -146.10946,166.16164 z"
         id="path1291-6" />
      <path
         sodipodi:nodetypes="cscc"
         id="path1291-6-4"
         d="m 210.09855,650.42616 c 0,0 -10.49999,-77.40063 -71.8606,-105.51416 -25.52842,-11.69633 -76.284738,-25.01963 -76.284738,-25.01963 52.040198,78.12472 112.940578,71.62695 148.145338,130.53379 z"
         style="fill:#00d400;stroke:none;stroke-width:0.300186px;stroke-linecap:butt;stroke-linejoin:miter;stroke-opacity:1"
         inkscape:transform-center-x="-5.0072475"
         inkscape:transform-center-y="1.669081" />
      <path
         sodipodi:nodetypes="cscc"
         style="fill:#00d400;stroke:none;stroke-width:0.300186px;stroke-linecap:butt;stroke-linejoin:miter;stroke-opacity:1"
         d="m 217.35536,650.49062 c 0,0 -66.02735,-53.04393 -56.85014,-119.25997 5.93596,-42.82956 0.1077,-71.17082 -7.18533,-107.30665 0,0 77.37339,116.28153 64.03547,226.56662 z"
         id="path1291-0" />
      <path
         sodipodi:nodetypes="ccsccsc"
         id="path1342"
         d="m 239.26913,629.98042 c 27.22547,-42.28368 58.98561,-99.79039 87.35223,-121.53352 0,0 -17.56541,42.2519 -26.11074,58.39307 -8.54532,16.14117 -53.1709,58.8678 -53.1709,58.8678 -4.84127,3.31245 12.58707,-72.60223 59.34254,-103.96814 8.54533,-5.22214 -14.71697,46.0498 -24.21177,57.44357 -22.36662,26.83997 -36.08025,41.77715 -29.90863,35.60554"
         style="fill:none;stroke:#ccffaa;stroke-width:1.32292;stroke-linecap:butt;stroke-linejoin:miter;stroke-miterlimit:4;stroke-dasharray:none;stroke-opacity:1" />
      <path
         style="fill:none;stroke:#ccffaa;stroke-width:1.54369;stroke-linecap:butt;stroke-linejoin:miter;stroke-miterlimit:4;stroke-dasharray:none;stroke-opacity:1"
         d="m 211.21602,639.37512 c 16.88843,-58.22053 34.15733,-135.70846 58.38857,-170.26521 0,0 -1.65385,56.65046 -10.89185,76.70874 -33.93809,73.68911 -45.25583,82.64016 -45.25583,82.64016 0,0 3.90057,-79.96459 38.52341,-137.38761 7.69443,-8.85658 -0.80832,44.83789 -7.69501,61.21995 -16.22279,38.59075 -28.04543,74.24201 -23.20203,65.03775"
         id="path1342-5"
         sodipodi:nodetypes="ccsccsc" />
      <path
         sodipodi:nodetypes="ccsccsc"
         id="path1359"
         d="m 203.94434,642.09751 c -8.73891,-59.98734 -15.21059,-139.112 -34.47027,-176.66711 0,0 -6.13607,56.34144 0.26188,77.4777 23.50448,77.64933 33.48677,88.06885 33.48677,88.06885 0,0 7.11005,-79.74332 -19.30493,-141.37442 -6.40622,-9.82871 -5.35253,44.5246 -0.77914,61.69674 10.77341,40.45193 17.59169,77.38834 14.05724,67.60649"
         style="fill:none;stroke:#ccffaa;stroke-width:1.54369;stroke-linecap:butt;stroke-linejoin:miter;stroke-miterlimit:4;stroke-dasharray:none;stroke-opacity:1" />
      <path
         style="fill:none;stroke:#ccffaa;stroke-width:1.32292;stroke-linecap:butt;stroke-linejoin:miter;stroke-miterlimit:4;stroke-dasharray:none;stroke-opacity:1"
         d="m 197.51912,631.76541 c -5.6542,-62.19562 -83.14286,-88.59301 -122.008274,-100.64494 0,0 28.484434,34.65605 53.645684,47.94878 16.14857,8.53132 65.98889,48.42351 65.98889,48.42351 7.63057,0.95227 -39.14589,-63.60471 -98.271253,-84.50379 -8.54533,-5.22214 29.236253,27.45606 41.302423,36.08026 27.58876,19.71886 50.7972,42.72663 44.62558,36.55502"
         id="path1342-8"
         sodipodi:nodetypes="ccsccsc" />
    </g>
    <rect
       style="opacity:1;fill:#aa9090;fill-opacity:1;stroke:none;stroke-width:11.4827;stroke-linecap:round;stroke-linejoin:round;stroke-miterlimit:4;stroke-dasharray:none;stroke-opacity:0.580392"
       id="rect1230"
       width="162.5829"
       height="52.570427"
       x="128.94507"
       y="620.98529"
       ry="14.294818" />
    <rect
       style="fill:#d38d5f;fill-opacity:1;stroke:none;stroke-width:4.29477;stroke-linecap:round;stroke-linejoin:round;stroke-miterlimit:4;stroke-dasharray:none;stroke-opacity:1"
       id="rect1134-7"
       width="222.20963"
       height="29.466362"
       x="30.921648"
       y="334.72665" />
    <path
       id="path1256"
       d="m 280.31537,673.44788 -139.9645,41.9766 -0.19319,-42.19914 z"
       style="opacity:0.467742;fill:#999999;stroke:none;stroke-width:0.15194px;stroke-linecap:butt;stroke-linejoin:miter;stroke-opacity:1" />
    <circle
       r="91.569687"
       cy="227.26988"
       cx="1543.0168"
       id="circle1289"
       style="opacity:0.27741935;fill:#666666;fill-opacity:1;stroke:none;stroke-width:15.875;stroke-linecap:round;stroke-linejoin:round;stroke-miterlimit:4;stroke-dasharray:none;stroke-opacity:0.580392" />
    <circle
       style="opacity:0.858065;fill:#d38d5f;fill-opacity:1;stroke:none;stroke-width:15.875;stroke-linecap:round;stroke-linejoin:round;stroke-miterlimit:4;stroke-dasharray:none;stroke-opacity:0.580392"
       id="path1279"
       cx="1552.0128"
       cy="221.44913"
       r="91.569687" />
    <circle
       r="75.685143"
       cy="221.44913"
       cx="1552.0128"
       id="circle1281"
       style="opacity:0.858065;fill:#f6dfdf;fill-opacity:1;stroke:none;stroke-width:13.1212;stroke-linecap:round;stroke-linejoin:round;stroke-miterlimit:4;stroke-dasharray:none;stroke-opacity:0.580392" />
    <circle
       style="opacity:0.858065;fill:#000000;fill-opacity:1;stroke:none;stroke-width:15.875;stroke-linecap:round;stroke-linejoin:round;stroke-miterlimit:4;stroke-dasharray:none;stroke-opacity:0.580392"
       id="path1283"
       cx="1552.0128"
       cy="221.44913"
       r="11.212615" />
    <path
       style="fill:none;stroke:#000000;stroke-width:5.29166667;stroke-linecap:butt;stroke-linejoin:miter;stroke-miterlimit:4;stroke-dasharray:none;stroke-opacity:1"
       d="m 1552.0128,221.44912 c 65.6594,0 65.6594,0 65.6594,0"
       id="path1285" />
    <path
       id="path1287"
       d="m 1547.1521,223.25816 c 41.7226,-28.68265 41.7226,-28.68265 41.7226,-28.68265"
       style="fill:none;stroke:#000000;stroke-width:5.29166667;stroke-linecap:butt;stroke-linejoin:miter;stroke-miterlimit:4;stroke-dasharray:none;stroke-opacity:1" />
    <rect
       style="opacity:1;fill:#9cb9e4;fill-opacity:1;stroke:#3771c8;stroke-width:5.29166667;stroke-linecap:round;stroke-linejoin:round;stroke-miterlimit:4;stroke-dasharray:none;stroke-opacity:1"
       id="rect1386"
       width="31.0443"
       height="147.31604"
       x="87.184464"
       y="186.10173"
       ry="10.562597" />
    <rect
       ry="10.562597"
       y="186.35231"
       x="122.6713"
       height="147.31604"
       width="31.0443"
       id="rect1388"
       style="opacity:1;fill:#9cb9e4;fill-opacity:1;stroke:#3771c8;stroke-width:5.29167;stroke-linecap:round;stroke-linejoin:round;stroke-miterlimit:4;stroke-dasharray:none;stroke-opacity:1" />
    <rect
       style="opacity:1;fill:#9cb9e4;fill-opacity:1;stroke:#3771c8;stroke-width:5.29167;stroke-linecap:round;stroke-linejoin:round;stroke-miterlimit:4;stroke-dasharray:none;stroke-opacity:1"
       id="rect1390"
       width="31.0443"
       height="147.31604"
       x="73.668449"
       y="239.75046"
       ry="10.562597"
       transform="rotate(-20.715234)" />
    <g
       id="g1441"
       transform="translate(8.2010715,2.1614474)">
      <rect
         ry="11.509991"
         y="304.37479"
         x="1070.1278"
         height="164.815"
         width="282.24969"
         id="rect1392"
         style="opacity:1;fill:#000000;fill-opacity:1;stroke:#000000;stroke-width:26.4583;stroke-linecap:round;stroke-linejoin:round;stroke-miterlimit:4;stroke-dasharray:none;stroke-opacity:1" />
      <path
         d="m 1189.8684,433.09374 v 68.99783 H 1151.96 v 21.23032 h 118.5854 v -21.23032 h -37.9084 v -68.99783 z"
         style="opacity:1;fill:#000000;fill-opacity:1;stroke:none;stroke-width:19.0338;stroke-linecap:round;stroke-linejoin:round;stroke-miterlimit:4;stroke-dasharray:none;stroke-opacity:1"
         id="rect1430" />
      <path
         transform="scale(0.26458333)"
         d="m 5111.3477,1400.625 -1066.7696,271.1016 v 58.0859 c 0,24.1003 19.4018,43.5039 43.502,43.5039 h 308.3515 l 714.9161,-181.6836 z"
         style="opacity:0.290323;fill:#ffffff;fill-opacity:1;stroke:none;stroke-width:20;stroke-linecap:round;stroke-linejoin:round;stroke-miterlimit:4;stroke-dasharray:none;stroke-opacity:1"
         id="rect1394" />
      <path
         transform="scale(0.26458333)"
         d="m 4375.2051,1150.3926 -330.627,84.0234 v 371.9629 l 1066.7696,-271.0996 v -141.3848 c 0,-24.1003 -19.4018,-43.5019 -43.502,-43.5019 z"
         style="opacity:0.290323;fill:#ffffff;fill-opacity:1;stroke:none;stroke-width:27.9097;stroke-linecap:round;stroke-linejoin:round;stroke-miterlimit:4;stroke-dasharray:none;stroke-opacity:1"
         id="rect1394-3" />
    </g>
    <g
       id="g1570">
      <rect
         style="fill:#d38d5f;fill-opacity:1;stroke:none;stroke-width:9.04073;stroke-linecap:round;stroke-linejoin:round;stroke-miterlimit:4;stroke-dasharray:none;stroke-opacity:1"
         id="rect1134"
         width="984.66742"
         height="29.466362"
         x="542.67206"
         y="525.48334" />
      <rect
         style="fill:#d38d5f;fill-opacity:1;stroke:none;stroke-width:15.875;stroke-linecap:round;stroke-linejoin:round;stroke-miterlimit:4;stroke-dasharray:none;stroke-opacity:0.580392"
         id="rect1136"
         width="184.16472"
         height="341.31863"
         x="611.34167"
         y="554.94971" />
      <g
         id="g1185">
        <rect
           y="581.96051"
           x="623.61932"
           height="83.488045"
           width="159.60939"
           id="rect1138"
           style="fill:#e1b293;fill-opacity:1;stroke:none;stroke-width:14.5662;stroke-linecap:round;stroke-linejoin:round;stroke-miterlimit:4;stroke-dasharray:none;stroke-opacity:0.580392" />
        <rect
           y="595.72534"
           x="632.2301"
           height="13.610596"
           width="142.38777"
           id="rect1149"
           style="fill:#d38d5f;fill-opacity:1;stroke:none;stroke-width:15.875;stroke-linecap:round;stroke-linejoin:round;stroke-miterlimit:4;stroke-dasharray:none;stroke-opacity:0.580392" />
      </g>
      <g
         transform="translate(0,0.79375)"
         id="g1181">
        <rect
           style="fill:#e1b293;fill-opacity:1;stroke:none;stroke-width:14.5662;stroke-linecap:round;stroke-linejoin:round;stroke-miterlimit:4;stroke-dasharray:none;stroke-opacity:0.580392"
           id="rect1171"
           width="159.60939"
           height="83.488045"
           x="623.61932"
           y="683.56207" />
        <rect
           style="fill:#d38d5f;fill-opacity:1;stroke:none;stroke-width:15.875;stroke-linecap:round;stroke-linejoin:round;stroke-miterlimit:4;stroke-dasharray:none;stroke-opacity:0.580392"
           id="rect1173"
           width="142.38777"
           height="13.610596"
           x="632.2301"
           y="697.3269" />
      </g>
      <g
         id="g1189">
        <rect
           y="786.75116"
           x="623.61932"
           height="83.488045"
           width="159.60939"
           id="rect1175"
           style="fill:#e1b293;fill-opacity:1;stroke:none;stroke-width:14.5662;stroke-linecap:round;stroke-linejoin:round;stroke-miterlimit:4;stroke-dasharray:none;stroke-opacity:0.580392" />
        <rect
           y="800.51599"
           x="632.2301"
           height="13.610596"
           width="142.38777"
           id="rect1177"
           style="fill:#d38d5f;fill-opacity:1;stroke:none;stroke-width:15.875;stroke-linecap:round;stroke-linejoin:round;stroke-miterlimit:4;stroke-dasharray:none;stroke-opacity:0.580392" />
      </g>
      <rect
         y="554.94971"
         x="1287.8361"
         height="341.31863"
         width="184.16472"
         id="rect1191"
         style="fill:#d38d5f;fill-opacity:1;stroke:none;stroke-width:15.875;stroke-linecap:round;stroke-linejoin:round;stroke-miterlimit:4;stroke-dasharray:none;stroke-opacity:0.580392" />
      <g
         transform="translate(676.49441)"
         id="g1197">
        <rect
           style="fill:#e1b293;fill-opacity:1;stroke:none;stroke-width:14.5662;stroke-linecap:round;stroke-linejoin:round;stroke-miterlimit:4;stroke-dasharray:none;stroke-opacity:0.580392"
           id="rect1193"
           width="159.60939"
           height="83.488045"
           x="623.61932"
           y="581.96051" />
        <rect
           style="fill:#d38d5f;fill-opacity:1;stroke:none;stroke-width:15.875;stroke-linecap:round;stroke-linejoin:round;stroke-miterlimit:4;stroke-dasharray:none;stroke-opacity:0.580392"
           id="rect1195"
           width="142.38777"
           height="13.610596"
           x="632.2301"
           y="595.72534" />
      </g>
      <g
         id="g1203"
         transform="translate(676.49441,0.79375)">
        <rect
           y="683.56207"
           x="623.61932"
           height="83.488045"
           width="159.60939"
           id="rect1199"
           style="fill:#e1b293;fill-opacity:1;stroke:none;stroke-width:14.5662;stroke-linecap:round;stroke-linejoin:round;stroke-miterlimit:4;stroke-dasharray:none;stroke-opacity:0.580392" />
        <rect
           y="697.3269"
           x="632.2301"
           height="13.610596"
           width="142.38777"
           id="rect1201"
           style="fill:#d38d5f;fill-opacity:1;stroke:none;stroke-width:15.875;stroke-linecap:round;stroke-linejoin:round;stroke-miterlimit:4;stroke-dasharray:none;stroke-opacity:0.580392" />
      </g>
      <g
         transform="translate(676.49441)"
         id="g1209">
        <rect
           style="fill:#e1b293;fill-opacity:1;stroke:none;stroke-width:14.5662;stroke-linecap:round;stroke-linejoin:round;stroke-miterlimit:4;stroke-dasharray:none;stroke-opacity:0.580392"
           id="rect1205"
           width="159.60939"
           height="83.488045"
           x="623.61932"
           y="786.75116" />
        <rect
           style="fill:#d38d5f;fill-opacity:1;stroke:none;stroke-width:15.875;stroke-linecap:round;stroke-linejoin:round;stroke-miterlimit:4;stroke-dasharray:none;stroke-opacity:0.580392"
           id="rect1207"
           width="142.38777"
           height="13.610596"
           x="632.2301"
           y="800.51599" />
      </g>
      <path
         id="path1211-7-0"
         d="m 795.76047,555.14721 -184.1647,37.25258 -0.2541,-37.45008 z"
         style="opacity:0.467742;fill:#999999;stroke:none;stroke-width:0.164188px;stroke-linecap:butt;stroke-linejoin:miter;stroke-opacity:1" />
      <path
         style="opacity:0.467742;fill:#999999;stroke:none;stroke-width:0.164188px;stroke-linecap:butt;stroke-linejoin:miter;stroke-opacity:1"
         d="m 1472.2549,555.14721 -184.1647,37.25258 -0.2541,-37.45008 z"
         id="path1277" />
    </g>
    <g
       id="g1505">
      <g
         transform="translate(8.9357758)"
         id="g1486">
        <path
           style="fill:none;stroke:#000000;stroke-width:10.5833;stroke-linecap:butt;stroke-linejoin:miter;stroke-miterlimit:4;stroke-dasharray:none;stroke-opacity:1"
           d="m 916.92705,908.11045 v -35.26642 l 100.50935,-33.5031"
           id="path1443" />
        <path
           id="path1445"
           d="m 994.51319,908.11045 v -35.26642 l 22.92321,-33.5031"
           style="fill:none;stroke:#000000;stroke-width:10.5833;stroke-linecap:butt;stroke-linejoin:miter;stroke-miterlimit:4;stroke-dasharray:none;stroke-opacity:1"
           sodipodi:nodetypes="ccc" />
        <path
           id="path1447"
           d="m 1117.9472,908.11045 v -35.26642 l -100.5108,-33.5031"
           style="fill:none;stroke:#000000;stroke-width:10.5833;stroke-linecap:butt;stroke-linejoin:miter;stroke-miterlimit:4;stroke-dasharray:none;stroke-opacity:1" />
        <path
           sodipodi:nodetypes="ccc"
           style="fill:none;stroke:#000000;stroke-width:10.5833;stroke-linecap:butt;stroke-linejoin:miter;stroke-miterlimit:4;stroke-dasharray:none;stroke-opacity:1"
           d="m 1040.3596,908.11045 v -35.26642 l -22.9232,-33.5031"
           id="path1449" />
        <circle
           style="opacity:1;fill:#000000;fill-opacity:1;stroke:none;stroke-width:10.5833;stroke-linecap:round;stroke-linejoin:round;stroke-miterlimit:4;stroke-dasharray:none;stroke-opacity:1"
           id="path1451"
           cx="900.17548"
           cy="908.11047"
           r="16.751553" />
        <circle
           r="16.751553"
           cy="908.11047"
           cx="994.51318"
           id="circle1462"
           style="opacity:1;fill:#000000;fill-opacity:1;stroke:none;stroke-width:10.5833;stroke-linecap:round;stroke-linejoin:round;stroke-miterlimit:4;stroke-dasharray:none;stroke-opacity:1" />
        <circle
           style="opacity:1;fill:#000000;fill-opacity:1;stroke:none;stroke-width:10.5833;stroke-linecap:round;stroke-linejoin:round;stroke-miterlimit:4;stroke-dasharray:none;stroke-opacity:1"
           id="circle1464"
           cx="1040.3596"
           cy="908.11047"
           r="16.751553" />
        <circle
           r="16.751553"
           cy="908.11047"
           cx="1133.2932"
           id="circle1466"
           style="opacity:1;fill:#000000;fill-opacity:1;stroke:none;stroke-width:10.5833;stroke-linecap:round;stroke-linejoin:round;stroke-miterlimit:4;stroke-dasharray:none;stroke-opacity:1" />
        <path
           style="fill:none;stroke:#000000;stroke-width:10.5833;stroke-linecap:butt;stroke-linejoin:miter;stroke-miterlimit:4;stroke-dasharray:none;stroke-opacity:1"
           d="M 1017.4364,839.34093 V 743.45601"
           id="path1468" />
      </g>
      <rect
         rx="15.556015"
         ry="16.838314"
         y="708.05737"
         x="915.56067"
         height="47.225143"
         width="220.2189"
         id="rect1470"
         style="opacity:1;fill:#000000;fill-opacity:1;stroke:none;stroke-width:7.61109;stroke-linecap:round;stroke-linejoin:round;stroke-miterlimit:4;stroke-dasharray:none;stroke-opacity:1" />
      <rect
         style="opacity:1;fill:#000000;fill-opacity:1;stroke:none;stroke-width:15.2903;stroke-linecap:round;stroke-linejoin:round;stroke-miterlimit:4;stroke-dasharray:none;stroke-opacity:1"
         id="rect1488"
         width="220.2189"
         height="190.59456"
         x="915.56067"
         y="498.51749"
         ry="54.92366"
         rx="25.581863" />
      <rect
         ry="46.601784"
         rx="25.581875"
         y="653.67987"
         x="989.85205"
         height="100.29061"
         width="71.636147"
         id="rect1490"
         style="opacity:1;fill:#000000;fill-opacity:1;stroke:none;stroke-width:4.87433;stroke-linecap:round;stroke-linejoin:round;stroke-miterlimit:4;stroke-dasharray:none;stroke-opacity:1;paint-order:fill markers stroke" />
    </g>
    <g
       id="g1614"
       transform="translate(-7.0146683,-3.0047808)">
      <path
         d="m 782.14237,473.12424 -53.95681,53.71089 h 53.95681 53.95652 z"
         style="fill:#3771c8;fill-opacity:1;stroke:none;stroke-width:0.194112px;stroke-linecap:butt;stroke-linejoin:miter;stroke-opacity:1"
         id="path1578" />
      <circle
         r="11.726087"
         cy="474.70911"
         cx="781.97412"
         id="path1583"
         style="opacity:1;fill:#3771c8;fill-opacity:1;stroke:none;stroke-width:5.29167;stroke-linecap:round;stroke-linejoin:round;stroke-miterlimit:4;stroke-dasharray:none;stroke-opacity:1;paint-order:fill markers stroke" />
      <path
         id="path1585"
         d="M 782.14235,473.12423 V 343.24197 L 885.57607,285.9365"
         style="fill:none;stroke:#3771c8;stroke-width:15;stroke-linecap:butt;stroke-linejoin:miter;stroke-miterlimit:4;stroke-dasharray:none;stroke-opacity:1" />
      <g
         transform="matrix(0.87066533,-0.44826207,0.44333894,0.88207934,-95.436385,366.22798)"
         id="g1606">
        <path
           d="m 942.93363,382.8605 -53.95681,53.71089 h 53.95681 53.95652 z"
           style="fill:#3771c8;fill-opacity:1;stroke:none;stroke-width:0.194112px;stroke-linecap:butt;stroke-linejoin:miter;stroke-opacity:1"
           id="path1578-4" />
        <rect
           style="opacity:1;fill:#3771c8;fill-opacity:1;stroke:#3771c8;stroke-width:10.1995;stroke-linecap:round;stroke-linejoin:round;stroke-miterlimit:4;stroke-dasharray:none;stroke-opacity:1;paint-order:fill markers stroke"
           id="rect1602"
           width="34.740265"
           height="52.128731"
           x="925.56335"
           y="355.20261" />
      </g>
    </g>
  </g>
</svg>
